Final Project
…
}

}

# Output summary performance dataframesrm()
summary_train_knn_fit %>% 
  filter(.metric %in% c("rmse", "rsq"))

## # A tibble: 30 x 4
##    .metric .estimator .estimate     k
##    <chr>   <chr>          <dbl> <dbl>
##  1 rmse    standard      23.0       1
##  2 rsq     standard       0.984     1
##  3 rmse    standard      42.8       3
##  4 rsq     standard       0.947     3
##  5 rmse    standard      60.0       5
##  6 rsq     standard       0.895     5
##  7 rmse    standard      70.3       7
##  8 rsq     standard       0.855     7
##  9 rmse    standard      77.4       9
## 10 rsq     standard       0.824     9
## #  with 20 more rows
…
}

}

# Output summary performance dataframesrm()
summary_train_knn_fit_2012 %>% 
  filter(.metric %in% c("rmse", "rsq"))

## # A tibble: 30 x 4
##    .metric .estimator .estimate     k
##    <chr>   <chr>          <dbl> <dbl>
##  1 rmse    standard      27.9       1
##  2 rsq     standard       0.982     1
##  3 rmse    standard      48.8       3
##  4 rsq     standard       0.947     3
##  5 rmse    standard      68.9       5
##  6 rsq     standard       0.895     5
##  7 rmse    standard      81.1       7
##  8 rsq     standard       0.854     7
##  9 rmse    standard      89.4       9
## 10 rsq     standard       0.822     9
## #  with 20 more rows
…
# Create summary performance evaluation dataframes
if (i == begin) {
auto_summary_train_knn_fit <- auto_train_knn_fit
auto_summary_test_knn_fit <-  auto_test_knn_fit
} else {
auto_summary_train_knn_fit <- bind_rows(auto_summary_train_knn_fit, auto_train_knn_fit)
auto_summary_test_knn_fit <- bind_rows(auto_summary_test_knn_fit, auto_test_knn_fit)
}

}

# Output summary performance dataframesrm()
auto_summary_train_knn_fit

## # A tibble: 28 x 4
##    .metric  .estimator .estimate     k
##    <chr>    <chr>          <dbl> <dbl>
##  1 accuracy multiclass     0.689     3
##  2 kap      multiclass     0.585     3
##  3 accuracy multiclass     0.695     5
##  4 kap      multiclass     0.593     5
##  5 accuracy multiclass     0.675     7
##  6 kap      multiclass     0.566     7
##  7 accuracy multiclass     0.658     9
##  8 kap      multiclass     0.544     9
##  9 accuracy multiclass     0.641    11
## 10 kap      multiclass     0.520    11
## #  with 18 more rows
…
